dragonkin spine.png
size:4096,4096
filter:Linear,Linear
pma:true
dragonkin/action lines
bounds:2,2,583,466
dragonkin/body
bounds:2,1398,1705,1385
dragonkin/effect
bounds:1709,1932,228,235
dragonkin/normal
bounds:2,470,856,926
dragonkin/open h
bounds:1709,2169,1066,614
dragonkin/open mouth
bounds:860,1080,574,316
