{
"skeleton": {
	"hash": "IvHlZvQ8Na4",
	"spine": "4.1.24",
	"x": -868,
	"y": -5,
	"width": 1868,
	"height": 1810,
	"images": "./images/",
	"audio": "D:/Kerjaan/Foodcompany/spine/Wizards/Shadowmaster"
},
"bones": [
	{ "name": "root" },
	{ "name": "bone", "parent": "root", "length": 45.26, "rotation": -2.86, "x": -51.99, "y": 143.51 },
	{ "name": "bone2", "parent": "bone", "length": 730.48, "rotation": 90.73, "x": 45.26 }
],
"slots": [
	{ "name": "normal", "bone": "root", "attachment": "shadowmaster/normal" }
],
"skins": [
	{
		"name": "default",
		"attachments": {
			"normal": {
				"shadowmaster/normal": {
					"type": "mesh",
					"uvs": [ 1, 1, 0, 1, 0, 0, 1, 0, 0.47107, 0.54688, 0.4778, 0.38964 ],
					"triangles": [ 0, 4, 3, 4, 5, 3, 1, 2, 4, 4, 2, 5, 5, 2, 3, 1, 4, 0 ],
					"vertices": [ 1, 1, 1058.09, -95.79, 1, 1, 1, -807.58, -189.08, 1, 2, 1, -897.97, 1618.66, 1.5E-4, 2, 1630.63, 922.39, 0.99985, 1, 2, 1699.98, -944.33, 1, 1, 2, 674.12, 6.28, 1, 1, 2, 959, 4.29, 1 ],
					"hull": 4,
					"edges": [ 0, 2, 2, 4, 4, 6, 0, 6 ],
					"width": 1868,
					"height": 1810
				}
			}
		}
	}
],
"animations": {
	"idle": {
		"bones": {
			"bone2": {
				"scale": [
					{
						"curve": [ 0.062, 0.981, 0.079, 0.973, 0.044, 1, 0.089, 1 ]
					},
					{
						"time": 0.1333,
						"x": 0.955,
						"curve": [ 0.208, 0.931, 0.259, 0.916, 0.2, 1, 0.267, 1 ]
					},
					{
						"time": 0.3333,
						"x": 0.935,
						"curve": [ 0.49, 0.975, 0.548, 1.048, 0.444, 1, 0.556, 1 ]
					},
					{
						"time": 0.6667,
						"x": 1.063,
						"curve": [ 0.698, 1.066, 0.748, 1.06, 0.722, 1, 0.778, 1 ]
					},
					{ "time": 0.8333 }
				]
			}
		},
		"attachments": {
			"default": {
				"normal": {
					"shadowmaster/normal": {
						"deform": [
							{
								"offset": 10,
								"vertices": [ 4.60889, 0.17123 ]
							},
							{
								"time": 0.2,
								"offset": 10,
								"vertices": [ -27.41914, -0.94172, -16.69984, -0.58031 ]
							},
							{
								"time": 0.7333,
								"offset": 10,
								"vertices": [ 25.78901, 1.02285, 29.64105, 1.16063 ]
							},
							{
								"time": 0.8333,
								"offset": 10,
								"vertices": [ 4.60889, 0.17123 ]
							}
						]
					}
				}
			}
		}
	}
}
}