Supreme_Deathstalker_Mature.png
size:4096,4096
filter:Linear,Linear
pma:true
deathstalker/Bling 1
bounds:2,609,42,47
deathstalker/action lines
bounds:820,1928,583,466
deathstalker/body
bounds:2,2396,1860,880
deathstalker/effect
bounds:1864,2407,228,235
deathstalker/normal h
bounds:2,1344,816,1050
deathstalker/open hoodie h
bounds:1864,2644,632,1033
rotate:90
deathstalker/open mouth h
bounds:2899,2897,377,379
deathstalker/open skull h
bounds:2,658,649,684
