{
"skeleton": {
	"hash": "jMsS6aKOhPg",
	"spine": "4.1.24",
	"x": -256,
	"y": -1,
	"width": 533,
	"height": 673,
	"images": "./images/",
	"audio": "D:/Kerjaan/Foodcompany/spine/Vessel/Vessel serpent"
},
"bones": [
	{ "name": "root" },
	{ "name": "bone", "parent": "root", "length": 30.82, "x": -30.1, "y": 29.02 },
	{ "name": "bone2", "parent": "bone", "length": 321.03, "rotation": 89.24, "x": 30.82 },
	{ "name": "fx", "parent": "root", "x": -150.01, "y": 482.01 }
],
"slots": [
	{ "name": "serpent v", "bone": "root", "dark": "000000", "attachment": "vessel/serpent v" },
	{ "name": "fx", "bone": "root", "color": "ffffff00", "attachment": "vessel/Bling 1" }
],
"skins": [
	{
		"name": "default",
		"attachments": {
			"fx": {
				"vessel/Bling 1": {
					"type": "mesh",
					"uvs": [ 1, 1, 0, 1, 0, 0, 1, 0 ],
					"triangles": [ 1, 2, 3, 1, 3, 0 ],
					"vertices": [ 1, 3, 41.58, -47.34, 1, 1, 3, -42.42, -47.34, 1, 1, 3, -42.42, 46.66, 1, 1, 3, 41.58, 46.66, 1 ],
					"hull": 4,
					"edges": [ 0, 2, 2, 4, 4, 6, 0, 6 ],
					"width": 42,
					"height": 47
				}
			},
			"serpent v": {
				"vessel/serpent v": {
					"type": "mesh",
					"uvs": [ 1, 1, 0, 1, 0, 0, 1, 0, 0.49378, 0.4975 ],
					"triangles": [ 1, 4, 0, 4, 3, 0, 1, 2, 4, 4, 2, 3 ],
					"vertices": [ 1, 1, 307.1, -30.02, 1, 1, 1, -225.9, -30.02, 1, 2, 2, 639.5, 265.27, 0.9986, 1, -225.9, 642.98, 0.0014, 1, 2, 646.6, -267.68, 1, 1, 2, 308.22, -2.36, 1 ],
					"hull": 4,
					"edges": [ 0, 2, 2, 4, 4, 6, 0, 6 ],
					"width": 533,
					"height": 673
				}
			}
		}
	}
],
"animations": {
	"idle": {
		"bones": {
			"bone2": {
				"scale": [
					{
						"curve": [ 0.111, 1, 0.222, 0.971, 0.111, 1, 0.222, 1 ]
					},
					{
						"time": 0.3333,
						"x": 0.957,
						"curve": [ 0.533, 0.933, 0.594, 0.916, 0.533, 1, 0.733, 1 ]
					},
					{
						"time": 0.9333,
						"x": 0.916,
						"curve": [ 1.19, 0.915, 1.422, 1, 1.178, 1, 1.422, 1 ]
					},
					{ "time": 1.6667 }
				]
			}
		},
		"attachments": {
			"default": {
				"serpent v": {
					"vessel/serpent v": {
						"deform": [
							{
								"offset": 10,
								"vertices": [ -3.68766, -0.04917 ]
							},
							{
								"time": 1,
								"offset": 10,
								"vertices": [ -15.92368, -0.19668 ]
							},
							{
								"time": 1.6667,
								"offset": 10,
								"vertices": [ -3.68766, -0.04917 ]
							}
						]
					}
				}
			}
		}
	},
	"summon": {
		"slots": {
			"serpent v": {
				"rgba2": [
					{ "light": "ffffff00", "dark": "ffffff" },
					{ "time": 0.6, "light": "ffffffff", "dark": "ffffff", "curve": "stepped" },
					{ "time": 0.7333, "light": "ffffffff", "dark": "ffffff" },
					{ "time": 1, "light": "ffffffff", "dark": "000000" }
				]
			}
		},
		"bones": {
			"bone2": {
				"scale": [
					{ "x": 0.291 },
					{ "time": 0.4667, "x": 1.337, "y": 0.778 },
					{ "time": 0.7, "x": 0.796, "y": 1.185 },
					{ "time": 0.8667, "x": 1.16, "y": 0.864 },
					{ "time": 1 }
				]
			}
		}
	},
	"upgrade": {
		"slots": {
			"fx": {
				"rgba": [
					{ "color": "ffffff00" },
					{ "time": 0.1333, "color": "fffffffe" },
					{ "time": 0.2667, "color": "ffffff00", "curve": "stepped" },
					{ "time": 0.3, "color": "ffffff00" },
					{ "time": 0.4667, "color": "fffffffe" },
					{ "time": 0.6, "color": "ffffff00", "curve": "stepped" },
					{ "time": 0.6333, "color": "ffffff00" },
					{ "time": 0.8333, "color": "fffffffe" },
					{ "time": 0.9333, "color": "ffffff00", "curve": "stepped" },
					{ "time": 0.9667, "color": "ffffff00" },
					{ "time": 1.1333, "color": "fffffffe" },
					{ "time": 1.3333, "color": "ffffff00" }
				]
			},
			"serpent v": {
				"rgba2": [
					{ "light": "ffffffff", "dark": "000000" },
					{ "time": 0.6667, "light": "ffffffff", "dark": "ffffff" }
				]
			}
		},
		"bones": {
			"fx": {
				"translate": [
					{ "y": -176.16 },
					{ "time": 0.2667, "y": -36.7 },
					{ "time": 0.3, "x": 337.64, "y": -230.47 },
					{ "time": 0.6, "x": 337.64, "y": -2.94 },
					{ "time": 0.6333, "x": 231.94, "y": -322.96 },
					{ "time": 0.9333, "x": 231.94, "y": -55.78 },
					{ "time": 0.9667, "x": 45.51, "y": -262.77 },
					{ "time": 1.3333, "x": 45.51, "y": 48.44 }
				]
			},
			"bone2": {
				"scale": [
					{},
					{ "time": 0.2, "x": 1.084 },
					{ "time": 0.4333, "x": 0.974 },
					{ "time": 0.8667, "x": 1.251 }
				]
			}
		}
	}
}
}