{
"skeleton": {
	"hash": "+jafnOXx2mA",
	"spine": "4.1.24",
	"x": -299,
	"y": -3,
	"width": 740,
	"height": 714,
	"images": "./images/",
	"audio": "D:/Kerjaan/Foodcompany/spine/Vessel/vessel eclipse"
},
"bones": [
	{ "name": "root" },
	{ "name": "bone", "parent": "root", "length": 29.02, "rotation": -3.58, "x": -29.88, "y": 26.67 },
	{ "name": "bone2", "parent": "bone", "length": 427.17, "rotation": 93.21, "x": 28.96, "y": 0.9 },
	{ "name": "fx", "parent": "root", "x": -232.87, "y": 313.54 }
],
"slots": [
	{ "name": "eclipse v", "bone": "root", "dark": "000000", "attachment": "vessel eclipse/eclipse v" },
	{ "name": "fx", "bone": "root" }
],
"skins": [
	{
		"name": "default",
		"attachments": {
			"eclipse v": {
				"vessel eclipse/eclipse v": {
					"type": "mesh",
					"uvs": [ 1, 1, 0, 1, 0, 0, 1, 0, 0.3516, 0.42815 ],
					"triangles": [ 4, 3, 0, 1, 2, 4, 4, 2, 3, 1, 4, 0 ],
					"vertices": [ 1, 1, 471.81, -0.24, 1, 1, 1, -266.75, -46.4, 1, 2, 1, -311.29, 666.21, 0.00187, 2, 683.33, 302.43, 0.99813, 1, 2, 688.03, -437.55, 1, 2, 1, -32.54, 377.34, 0.00673, 2, 379.29, 40.31, 0.99327 ],
					"hull": 4,
					"edges": [ 0, 2, 2, 4, 4, 6, 0, 6 ],
					"width": 740,
					"height": 714
				}
			},
			"fx": {
				"vessel eclipse/Bling 1": {
					"type": "mesh",
					"uvs": [ 1, 1, 0, 1, 0, 0, 1, 0 ],
					"triangles": [ 1, 2, 3, 1, 3, 0 ],
					"vertices": [ 1, 3, 41.99, -44.96, 1, 1, 3, -42.01, -44.96, 1, 1, 3, -42.01, 49.04, 1, 1, 3, 41.99, 49.04, 1 ],
					"hull": 4,
					"edges": [ 0, 2, 2, 4, 4, 6, 0, 6 ],
					"width": 42,
					"height": 47
				}
			}
		}
	}
],
"animations": {
	"idle": {
		"bones": {
			"bone2": {
				"scale": [
					{
						"x": 1.1,
						"y": 1.1,
						"curve": [ 0.193, 1.093, 0.221, 1.028, 0.111, 1.1, 0.222, 1.1 ]
					},
					{
						"time": 0.3333,
						"y": 1.1,
						"curve": [ 0.677, 0.915, 0.731, 0.984, 0.533, 1.1, 0.733, 1.1 ]
					},
					{
						"time": 0.9333,
						"x": 0.97,
						"y": 1.1,
						"curve": [ 1.178, 0.953, 1.422, 1.1, 1.178, 1.1, 1.422, 1.1 ]
					},
					{ "time": 1.6667, "x": 1.1, "y": 1.1 }
				]
			}
		},
		"attachments": {
			"default": {
				"eclipse v": {
					"vessel eclipse/eclipse v": {
						"deform": [
							{
								"offset": 10,
								"vertices": [ 0.22281, -3.56501, -3.57189, -0.0227 ]
							},
							{
								"time": 1,
								"offset": 10,
								"vertices": [ 1.5597, -24.95529, -28.57669, -0.15892 ]
							},
							{
								"time": 1.6667,
								"offset": 10,
								"vertices": [ 0.22281, -3.56501, -3.57189, -0.0227 ]
							}
						]
					}
				}
			}
		}
	},
	"upgrade": {
		"slots": {
			"eclipse v": {
				"rgba2": [
					{ "light": "ffffffff", "dark": "000000" },
					{ "time": 0.6667, "light": "ffffffff", "dark": "ffffff" }
				]
			},
			"fx": {
				"rgba": [
					{ "color": "ffffff00" },
					{ "time": 0.1333, "color": "fffffffe" },
					{ "time": 0.2667, "color": "ffffff00", "curve": "stepped" },
					{ "time": 0.3, "color": "ffffff00" },
					{ "time": 0.4667, "color": "fffffffe" },
					{ "time": 0.6, "color": "ffffff00", "curve": "stepped" },
					{ "time": 0.6333, "color": "ffffff00" },
					{ "time": 0.8333, "color": "fffffffe" },
					{ "time": 0.9333, "color": "ffffff00", "curve": "stepped" },
					{ "time": 0.9667, "color": "ffffff00" },
					{ "time": 1.1333, "color": "fffffffe" },
					{ "time": 1.3333, "color": "ffffff00" }
				],
				"attachment": [
					{ "name": "vessel eclipse/Bling 1" }
				]
			}
		},
		"bones": {
			"fx": {
				"translate": [
					{ "y": -176.16 },
					{ "time": 0.2667, "y": -36.7 },
					{ "time": 0.3, "x": 337.64, "y": -230.47 },
					{ "time": 0.6, "x": 337.64, "y": -2.94 },
					{ "time": 0.6333, "x": 231.94, "y": -322.96 },
					{ "time": 0.9333, "x": 231.94, "y": -55.78 },
					{ "time": 0.9667, "x": 45.51, "y": -262.77 },
					{ "time": 1.3333, "x": 45.51, "y": 48.44 }
				]
			},
			"bone2": {
				"scale": [
					{ "x": 1.1, "y": 1.1 },
					{ "time": 0.2, "x": 1.2, "y": 1.1 },
					{ "time": 0.4333, "y": 1.1 },
					{ "time": 0.8667, "x": 1.32, "y": 1.1 }
				]
			}
		}
	}
}
}