%YAML 1.1
%TAG !u! tag:unity3d.com,2011:
--- !u!114 &11400000
MonoBehaviour:
  m_ObjectHideFlags: 0
  m_CorrespondingSourceObject: {fileID: 0}
  m_PrefabInstance: {fileID: 0}
  m_PrefabAsset: {fileID: 0}
  m_GameObject: {fileID: 0}
  m_Enabled: 1
  m_EditorHideFlags: 0
  m_Script: {fileID: 11500000, guid: a6b194f808b1af6499c93410e504af42, type: 3}
  m_Name: Minor_GoldenGolem_Mature_Atlas
  m_EditorClassIdentifier: 
  textureLoadingMode: 0
  onDemandTextureLoader: {fileID: 0}
  atlasFile: {fileID: 4900000, guid: 504a2715d2ce1854fb3fa328e0f50a89, type: 3}
  materials:
  - {fileID: 2100000, guid: fcafc5f728d43424ebd9298f5986df32, type: 2}
