{
"skeleton": {
	"hash": "EDsWzei5zzs",
	"spine": "4.1.24",
	"x": -249,
	"width": 560,
	"height": 629,
	"images": "./images/",
	"audio": "D:/Kerjaan/Foodcompany/spine/Vessel/vessel direwolf"
},
"bones": [
	{ "name": "root" },
	{ "name": "bone", "parent": "root", "length": 25.71, "rotation": -1.79, "x": -26.18, "y": 23.18 },
	{ "name": "bone2", "parent": "bone", "length": 372.84, "rotation": 89.69, "x": 25.71 },
	{ "name": "fx", "parent": "root", "x": -245.52, "y": 372.75 }
],
"slots": [
	{ "name": "direwolf v", "bone": "root", "dark": "000000", "attachment": "vessel direwolf/direwolf v" },
	{ "name": "fx", "bone": "root", "attachment": "vessel direwolf/Bling 1" }
],
"skins": [
	{
		"name": "default",
		"attachments": {
			"direwolf v": {
				"vessel direwolf/direwolf v": {
					"type": "mesh",
					"uvs": [ 1, 1, 0, 1, 0, 0, 1, 0, 0.46324, 0.47562 ],
					"triangles": [ 1, 4, 0, 4, 2, 3, 1, 2, 4, 4, 3, 0 ],
					"vertices": [ 2, 2, -10.95, -312.1, 0.05143, 1, 337.74, -12.63, 0.94857, 2, 2, -31.46, 247.53, 0.05143, 1, -221.99, -30.13, 0.94857, 2, 2, 597.12, 270.56, 0.99945, 1, -241.63, 598.57, 5.5E-4, 1, 2, 617.62, -289.07, 1, 2, 2, 307.65, 0.37, 0.99997, 1, 27, 307.65, 3.0E-5 ],
					"hull": 4,
					"edges": [ 0, 2, 2, 4, 4, 6, 0, 6 ],
					"width": 560,
					"height": 629
				}
			},
			"fx": {
				"vessel direwolf/Bling 1": {
					"type": "mesh",
					"uvs": [ 1, 1, 0, 1, 0, 0, 1, 0 ],
					"triangles": [ 1, 2, 3, 1, 3, 0 ],
					"vertices": [ 1, 3, 43.84, -44.14, 1, 1, 3, -40.16, -44.14, 1, 1, 3, -40.16, 49.86, 1, 1, 3, 43.84, 49.86, 1 ],
					"hull": 4,
					"edges": [ 0, 2, 2, 4, 4, 6, 0, 6 ],
					"width": 42,
					"height": 47
				}
			}
		}
	}
],
"animations": {
	"idle": {
		"bones": {
			"bone2": {
				"scale": [
					{
						"curve": [ 0.164, 1, 0.179, 0.979, 0.111, 1, 0.222, 1 ]
					},
					{
						"time": 0.3333,
						"x": 0.954,
						"curve": [ 0.533, 0.921, 0.733, 0.868, 0.533, 1, 0.733, 1 ]
					},
					{
						"time": 0.9333,
						"x": 0.868,
						"curve": [ 1.178, 0.868, 1.402, 0.935, 1.178, 1, 1.422, 1 ]
					},
					{ "time": 1.6667 }
				]
			}
		},
		"attachments": {
			"default": {
				"direwolf v": {
					"vessel direwolf/direwolf v": {
						"deform": [
							{
								"offset": 14,
								"vertices": [ 4.10423, 0.15037, -0.12827, 4.10499 ]
							},
							{
								"time": 1,
								"offset": 14,
								"vertices": [ -16.33262, -0.50124, 0.42763, -13.68327 ]
							},
							{
								"time": 1.6667,
								"offset": 14,
								"vertices": [ 4.10423, 0.15037, -0.12827, 4.10499 ]
							}
						]
					}
				}
			}
		}
	},
	"summon": {
		"slots": {
			"direwolf v": {
				"rgba2": [
					{ "light": "ffffff00", "dark": "ffffff" },
					{ "time": 0.6, "light": "ffffffff", "dark": "ffffff" },
					{ "time": 0.7333, "light": "ffffffff", "dark": "000000" }
				]
			}
		},
		"bones": {
			"bone2": {
				"scale": [
					{ "x": 0.291 },
					{ "time": 0.4667, "x": 1.337, "y": 0.778 },
					{ "time": 0.7, "x": 0.796, "y": 1.185 },
					{ "time": 0.8667, "x": 1.16, "y": 0.864 },
					{ "time": 1 }
				]
			}
		}
	},
	"upgrade": {
		"slots": {
			"direwolf v": {
				"rgba2": [
					{ "light": "ffffffff", "dark": "000000" },
					{ "time": 0.6667, "light": "ffffffff", "dark": "ffffff" }
				]
			},
			"fx": {
				"rgba": [
					{ "color": "ffffff00" },
					{ "time": 0.1333, "color": "fffffffe" },
					{ "time": 0.2667, "color": "ffffff00", "curve": "stepped" },
					{ "time": 0.3, "color": "ffffff00" },
					{ "time": 0.4667, "color": "fffffffe" },
					{ "time": 0.6, "color": "ffffff00", "curve": "stepped" },
					{ "time": 0.6333, "color": "ffffff00" },
					{ "time": 0.8333, "color": "fffffffe" },
					{ "time": 0.9333, "color": "ffffff00", "curve": "stepped" },
					{ "time": 0.9667, "color": "ffffff00" },
					{ "time": 1.1333, "color": "fffffffe" },
					{ "time": 1.3333, "color": "ffffff00" }
				]
			}
		},
		"bones": {
			"fx": {
				"translate": [
					{ "y": -176.16 },
					{ "time": 0.2667, "y": -36.7 },
					{ "time": 0.3, "x": 337.64, "y": -230.47 },
					{ "time": 0.6, "x": 337.64, "y": -2.94 },
					{ "time": 0.6333, "x": 231.94, "y": -322.96 },
					{ "time": 0.9333, "x": 231.94, "y": -55.78 },
					{ "time": 0.9667, "x": 45.51, "y": -262.77 },
					{ "time": 1.3333, "x": 45.51, "y": 48.44 }
				]
			},
			"bone2": {
				"scale": [
					{},
					{ "time": 0.2, "x": 1.084 },
					{ "time": 0.4333, "x": 0.974 },
					{ "time": 0.8667, "x": 1.251 }
				]
			}
		}
	}
}
}