{
"skeleton": {
	"hash": "YDVN+2NguxU",
	"spine": "4.1.24",
	"x": -299,
	"y": -3,
	"width": 740,
	"height": 714,
	"images": "./images/",
	"audio": "D:/Kerjaan/Foodcompany/spine/Vessel/vessel eclipse"
},
"bones": [
	{ "name": "root" },
	{ "name": "bone", "parent": "root", "length": 29.02, "rotation": -3.58, "x": -29.88, "y": 26.67 },
	{ "name": "bone2", "parent": "bone", "length": 427.17, "rotation": 93.21, "x": 28.96, "y": 0.9 }
],
"slots": [
	{ "name": "eclipse v", "bone": "root", "attachment": "vessel eclipse/eclipse v" }
],
"skins": [
	{
		"name": "default",
		"attachments": {
			"eclipse v": {
				"vessel eclipse/eclipse v": {
					"type": "mesh",
					"uvs": [ 1, 1, 0, 1, 0, 0, 1, 0, 0.3516, 0.42815 ],
					"triangles": [ 4, 2, 3, 1, 2, 4, 4, 3, 0, 1, 4, 0 ],
					"vertices": [ 1, 1, 471.81, -0.24, 1, 1, 1, -266.75, -46.4, 1, 2, 1, -311.29, 666.21, 0.00187, 2, 683.33, 302.43, 0.99813, 1, 2, 688.03, -437.55, 1, 2, 1, -32.54, 377.34, 0.00673, 2, 379.29, 40.31, 0.99327 ],
					"hull": 4,
					"edges": [ 0, 2, 2, 4, 4, 6, 0, 6 ],
					"width": 740,
					"height": 714
				}
			}
		}
	}
],
"animations": {
	"idle": {
		"bones": {
			"bone2": {
				"scale": [
					{
						"curve": [ 0.193, 0.993, 0.221, 0.97, 0.111, 1, 0.222, 1 ]
					},
					{
						"time": 0.3333,
						"x": 0.942,
						"curve": [ 0.677, 0.856, 0.731, 0.872, 0.533, 1, 0.733, 1 ]
					},
					{
						"time": 0.9333,
						"x": 0.857,
						"curve": [ 1.178, 0.84, 1.422, 1, 1.178, 1, 1.422, 1 ]
					},
					{ "time": 1.6667 }
				]
			}
		},
		"attachments": {
			"default": {
				"eclipse v": {
					"vessel eclipse/eclipse v": {
						"deform": [
							{
								"offset": 10,
								"vertices": [ 0.22281, -3.56501, -3.57189, -0.0227 ]
							},
							{
								"time": 1,
								"offset": 10,
								"vertices": [ 1.5597, -24.95529, -28.57669, -0.15892 ]
							},
							{
								"time": 1.6667,
								"offset": 10,
								"vertices": [ 0.22281, -3.56501, -3.57189, -0.0227 ]
							}
						]
					}
				}
			}
		}
	}
}
}