%YAML 1.1
%TAG !u! tag:unity3d.com,2011:
--- !u!114 &11400000
MonoBehaviour:
  m_ObjectHideFlags: 0
  m_CorrespondingSourceObject: {fileID: 0}
  m_PrefabInstance: {fileID: 0}
  m_PrefabAsset: {fileID: 0}
  m_GameObject: {fileID: 0}
  m_Enabled: 1
  m_EditorHideFlags: 0
  m_Script: {fileID: 11500000, guid: a6b194f808b1af6499c93410e504af42, type: 3}
  m_Name: Minor_MirrorRaven_Mature_Atlas
  m_EditorClassIdentifier: 
  textureLoadingMode: 0
  onDemandTextureLoader: {fileID: 0}
  atlasFile: {fileID: 4900000, guid: ada07b85969a1d54582e6673289ac357, type: 3}
  materials:
  - {fileID: 2100000, guid: 6da4c619c495cfb40a4303493535b6b7, type: 2}
