{
"skeleton": {
	"hash": "x2XsypqO3QM",
	"spine": "4.1.24",
	"x": -715,
	"y": 5,
	"width": 1376,
	"height": 1458,
	"images": "./images/",
	"audio": "D:/Kerjaan/Foodcompany/spine/Wizards/Witch Hunter"
},
"bones": [
	{ "name": "root" },
	{ "name": "bone", "parent": "root", "length": 53.24, "x": -54.24, "y": 60.86 },
	{ "name": "bone2", "parent": "bone", "length": 672.54, "rotation": 87.65, "x": 53.24 }
],
"slots": [
	{ "name": "normal", "bone": "root", "attachment": "witch hunter/normal" }
],
"skins": [
	{
		"name": "default",
		"attachments": {
			"normal": {
				"witch hunter/normal": {
					"type": "mesh",
					"uvs": [ 1, 1, 0, 1, 0, 0, 1, 0, 0.51295, 0.52903 ],
					"triangles": [ 4, 3, 0, 1, 2, 4, 4, 2, 3, 1, 4, 0 ],
					"vertices": [ 1, 1, 715.24, -55.86, 1, 1, 1, -660.76, -55.86, 1, 2, 1, -660.76, 1402.14, 0.02575, 2, 1371.73, 770.82, 0.97425, 1, 2, 1428.07, -604.02, 1, 2, 1, 45.07, 630.82, 0.00445, 2, 629.96, 34, 0.99555 ],
					"hull": 4,
					"edges": [ 0, 2, 2, 4, 4, 6, 0, 6 ],
					"width": 1376,
					"height": 1458
				}
			}
		}
	}
],
"animations": {
	"idle": {
		"bones": {
			"bone2": {
				"scale": [
					{
						"curve": [ 0.055, 0.985, 0.082, 0.973, 0.044, 1, 0.089, 1 ]
					},
					{
						"time": 0.1333,
						"x": 0.947,
						"curve": [ 0.203, 0.912, 0.256, 0.878, 0.2, 1, 0.267, 1 ]
					},
					{
						"time": 0.3333,
						"x": 0.861,
						"curve": [ 0.451, 0.835, 0.556, 0.988, 0.444, 1, 0.556, 1 ]
					},
					{
						"time": 0.6667,
						"x": 1.029,
						"curve": [ 0.723, 1.049, 0.776, 1.02, 0.722, 1, 0.778, 1 ]
					},
					{ "time": 0.8333 }
				]
			}
		},
		"attachments": {
			"default": {
				"normal": {
					"witch hunter/normal": {
						"deform": [
							{
								"offset": 11,
								"vertices": [ 4.18799, 4.18447, 0.17149 ]
							},
							{
								"time": 0.2,
								"offset": 11,
								"vertices": [ -33.50385, -37.07586, -1.37196 ]
							},
							{
								"time": 0.7333,
								"offset": 11,
								"vertices": [ 43.97406, 39.72563, 1.8007 ]
							},
							{
								"time": 0.8333,
								"offset": 11,
								"vertices": [ 4.18799, 4.18447, 0.17149 ]
							}
						]
					}
				}
			}
		}
	}
}
}