{
"skeleton": {
	"hash": "VAjnF/ROD+c",
	"spine": "4.1.24",
	"x": -1084,
	"y": -61,
	"width": 1702,
	"height": 1892,
	"images": "./images/",
	"audio": "D:/Kerjaan/Foodcompany/spine/Mud Minion"
},
"bones": [
	{ "name": "root" },
	{ "name": "bone", "parent": "root", "length": 86.25, "rotation": -1.04, "x": -84.65, "y": 413.61 },
	{ "name": "bone2", "parent": "bone", "length": 586.47, "rotation": 91.65, "x": 86.25 },
	{
		"name": "bone3",
		"parent": "bone2",
		"length": 410.96,
		"rotation": 0.92,
		"x": 589.66,
		"y": 175.59,
		"transform": "noScale"
	},
	{ "name": "bone5", "parent": "bone3", "x": 274.9, "y": 36.38 },
	{ "name": "bone4", "parent": "bone5", "x": -194.56, "y": -3.5 },
	{ "name": "fx1", "parent": "root", "x": -590.59, "y": 1026.94 },
	{ "name": "fx2", "parent": "root", "x": 278.45, "y": 1163.93 }
],
"slots": [
	{ "name": "body", "bone": "root", "dark": "000000", "attachment": "mudminion/body" },
	{ "name": "head", "bone": "root", "dark": "000000", "attachment": "mudminion/normal" },
	{ "name": "open mouth", "bone": "root", "dark": "000000" },
	{ "name": "effect", "bone": "bone3" },
	{ "name": "action lines", "bone": "bone3" },
	{ "name": "mudminion/Bling 1", "bone": "fx1" },
	{ "name": "mudminion/Bling 2", "bone": "fx2" }
],
"skins": [
	{
		"name": "default",
		"attachments": {
			"action lines": {
				"mudminion/action lines": {
					"type": "mesh",
					"uvs": [ 1, 1, 0, 1, 0, 0, 1, 0 ],
					"triangles": [ 1, 2, 3, 1, 3, 0 ],
					"vertices": [ 119.92, -461.67, 135.49, 121.12, 601.33, 108.68, 585.76, -474.12 ],
					"hull": 4,
					"edges": [ 0, 2, 2, 4, 4, 6, 0, 6 ],
					"width": 583,
					"height": 466
				}
			},
			"body": {
				"mudminion/body": {
					"type": "mesh",
					"uvs": [ 1, 1, 0, 1, 0, 0, 1, 0, 0.16498, 0.71715, 0.59824, 0.38144 ],
					"triangles": [ 5, 3, 0, 4, 2, 5, 5, 2, 3, 1, 4, 0, 4, 5, 0, 1, 2, 4 ],
					"vertices": [ 1, 1, 711.17, -461.76, 1, 1, 1, -990.55, -492.7, 1, 2, 1, -1014.44, 821.09, 0.1374, 3, 277.25, 896.61, 0.8626, 2, 2, 834.32, -625.37, 0.1374, 3, 231.8, -804.78, 0.8626, 2, 1, -716.56, -115.99, 0.7405, 3, -672.24, 641.09, 0.2595, 2, 1, 12.71, 338.47, 0.40896, 3, -250.97, -107.84, 0.59104 ],
					"hull": 4,
					"edges": [ 0, 2, 2, 4, 4, 6, 0, 6 ],
					"width": 1702,
					"height": 1314
				}
			},
			"effect": {
				"mudminion/effect": {
					"type": "mesh",
					"uvs": [ 1, 1, 0, 1, 0, 0, 1, 0 ],
					"triangles": [ 1, 2, 3, 1, 3, 0 ],
					"vertices": [ 47.04, 554.64, 53.13, 782.56, 288.04, 776.28, 281.96, 548.36 ],
					"hull": 4,
					"edges": [ 0, 2, 2, 4, 4, 6, 0, 6 ],
					"width": 228,
					"height": 235
				}
			},
			"head": {
				"mudminion/normal": {
					"type": "mesh",
					"uvs": [ 1, 1, 0, 1, 0, 0, 1, 0 ],
					"triangles": [ 1, 2, 3, 1, 3, 0 ],
					"vertices": [ 1, 3, -3.63, -293.31, 1, 1, 3, 11.49, 272.49, 1, 1, 3, 838.2, 250.4, 1, 1, 3, 823.08, -315.4, 1 ],
					"hull": 4,
					"edges": [ 0, 2, 2, 4, 4, 6, 0, 6 ],
					"width": 566,
					"height": 827
				},
				"mudminion/open h": {
					"type": "mesh",
					"uvs": [ 1, 1, 0, 1, 0, 0, 1, 0 ],
					"triangles": [ 1, 3, 0, 1, 2, 3 ],
					"vertices": [ 1, 4, -326.3, -320.41, 1, 1, 4, -311.24, 243.38, 1, 1, 4, 580.45, 219.56, 1, 1, 4, 565.38, -344.24, 1 ],
					"hull": 4,
					"edges": [ 0, 2, 2, 4, 4, 6, 0, 6 ],
					"width": 564,
					"height": 892
				}
			},
			"mudminion/Bling 1": {
				"mudminion/Bling 1": {
					"type": "mesh",
					"uvs": [ 1, 1, 0, 1, 0, 0, 1, 0 ],
					"triangles": [ 1, 2, 3, 1, 3, 0 ],
					"vertices": [ 126.03, -140.5, -125.97, -140.5, -125.97, 141.5, 126.03, 141.5 ],
					"hull": 4,
					"edges": [ 0, 2, 2, 4, 4, 6, 0, 6 ],
					"width": 42,
					"height": 47
				}
			},
			"mudminion/Bling 2": {
				"mudminion/Bling 1": {
					"type": "mesh",
					"uvs": [ 1, 1, 0, 1, 0, 0, 1, 0 ],
					"triangles": [ 1, 2, 3, 1, 3, 0 ],
					"vertices": [ 126, -140.5, -126, -140.5, -126, 141.5, 126, 141.5 ],
					"hull": 4,
					"edges": [ 0, 2, 2, 4, 4, 6, 0, 6 ],
					"width": 42,
					"height": 47
				}
			},
			"open mouth": {
				"mudminion/open mouth": {
					"type": "mesh",
					"uvs": [ 1, 1, 0, 1, 0, 0, 1, 0 ],
					"triangles": [ 1, 2, 3, 1, 3, 0 ],
					"vertices": [ 1, 5, -93.12, -79.86, 1, 1, 5, -88.95, 76.08, 1, 1, 5, 91.98, 71.25, 1, 1, 5, 87.82, -84.69, 1 ],
					"hull": 4,
					"edges": [ 0, 2, 2, 4, 4, 6, 0, 6 ],
					"width": 156,
					"height": 181
				}
			}
		}
	}
],
"animations": {
	"eaten": {
		"slots": {
			"body": {
				"rgba2": [
					{ "light": "ffffffff", "dark": "000000" },
					{ "time": 0.3333, "light": "ffffff00", "dark": "000000" }
				]
			},
			"head": {
				"rgba2": [
					{ "light": "ffffffff", "dark": "000000" },
					{ "time": 0.3333, "light": "ffffff00", "dark": "000000" }
				]
			}
		},
		"bones": {
			"bone2": {
				"rotate": [
					{},
					{ "time": 0.3333, "value": 40.56 }
				],
				"scale": [
					{},
					{ "time": 0.3333, "x": 0.224 }
				]
			},
			"bone3": {
				"rotate": [
					{},
					{ "time": 0.3333, "value": 11.56 }
				],
				"translate": [
					{},
					{ "time": 0.3333, "x": -492.71, "y": 164.82 }
				]
			}
		}
	},
	"eating": {
		"slots": {
			"action lines": {
				"attachment": [
					{ "time": 0.1667, "name": "mudminion/action lines" },
					{ "time": 0.3667 }
				]
			},
			"effect": {
				"attachment": [
					{ "time": 0.3667, "name": "mudminion/effect" },
					{ "time": 0.5667 }
				]
			},
			"head": {
				"attachment": [
					{ "time": 0.0667, "name": "mudminion/open h" },
					{ "time": 0.3667, "name": "mudminion/normal" }
				]
			},
			"open mouth": {
				"attachment": [
					{ "time": 0.0667, "name": "mudminion/open mouth" },
					{ "time": 0.3667 }
				]
			}
		},
		"bones": {
			"bone2": {
				"scale": [
					{ "time": 0.1333 },
					{ "time": 0.2, "x": 1.18 },
					{ "time": 0.3, "x": 1.595 },
					{ "time": 0.4, "x": 0.658 },
					{ "time": 0.4667, "x": 1.438 },
					{ "time": 0.6667 }
				]
			},
			"bone3": {
				"rotate": [
					{},
					{ "time": 0.0667, "value": -17.83 },
					{ "time": 0.1667, "value": -24.6 },
					{ "time": 0.2333, "value": 34.04 },
					{ "time": 0.3667, "value": 16.24 },
					{ "time": 0.4333, "value": -2.52 },
					{ "time": 0.5 }
				],
				"translate": [
					{},
					{ "time": 0.0667, "x": 121.39, "y": 21.16 },
					{ "time": 0.1667, "x": 632.13 },
					{ "time": 0.3667, "x": -837.32, "y": 693.2 },
					{ "time": 0.6667 }
				]
			},
			"bone4": {
				"translate": [
					{},
					{ "time": 0.1667, "x": -7.67, "y": 18.1 },
					{ "time": 0.2667, "x": -151.89, "y": -8.54 },
					{ "time": 0.3333, "x": 3.34, "y": 6.7 },
					{ "time": 0.6667 }
				],
				"scale": [
					{ "time": 0.0667 },
					{ "time": 0.1667, "x": 2.347, "y": 1.523 },
					{ "time": 0.2667, "x": 4.344, "y": 2.04 },
					{ "time": 0.3333, "x": 1.517, "y": 1.432 },
					{ "time": 0.6667 }
				]
			},
			"bone5": {
				"scale": [
					{ "time": 0.0667 },
					{ "time": 0.2333, "x": 1.653, "y": 1.262 },
					{ "time": 0.3667, "x": 1.191, "y": 1.305 },
					{ "time": 0.6667 }
				]
			}
		},
		"attachments": {
			"default": {
				"action lines": {
					"mudminion/action lines": {
						"deform": [
							{
								"time": 0.1667,
								"offset": 1,
								"vertices": [ 2.99323, 1.2E-4, -3.12378, -2.4E-4, -2.99316, 1.2E-4, 3.12396 ]
							},
							{
								"time": 0.2667,
								"vertices": [ -147.206, -316.57324, 166.1391, 438.84833, 147.2016, 316.57224, -166.14221, -438.8494 ]
							},
							{
								"time": 0.3333,
								"offset": 1,
								"vertices": [ 2.99323, 1.2E-4, -3.12378, -2.4E-4, -2.99316, 1.2E-4, 3.12396 ]
							}
						]
					}
				},
				"effect": {
					"mudminion/effect": {
						"deform": [
							{
								"time": 0.3667,
								"vertices": [ -47.53812, -200.99707, -47.53806, -173.49097, -47.53806, -174.24854, -47.53809, -201.75415 ]
							},
							{
								"time": 0.4333,
								"vertices": [ -177.70517, -339.0125, -175.49396, 16.43933, -90.19476, 6.65039, -92.40567, -348.80023 ]
							},
							{
								"time": 0.5667,
								"vertices": [ -47.53812, -200.99707, -47.53806, -173.49097, -47.53806, -174.24854, -47.53809, -201.75415 ]
							}
						]
					}
				},
				"open mouth": {
					"mudminion/open mouth": {
						"deform": [
							{
								"time": 0.0667,
								"vertices": [ 35.2843, 23.30548, 29.61267, -19.79468, -35.28455, -23.30554, -29.6123, 19.7948 ]
							}
						]
					}
				}
			}
		}
	},
	"idle ate": {
		"slots": {
			"body": {
				"rgba2": [
					{ "light": "ffffffff", "dark": "000000" },
					{ "time": 0.4667, "light": "ffffffff", "dark": "dfdfdf" },
					{ "time": 0.8333, "light": "ffffffff", "dark": "000000" }
				]
			},
			"head": {
				"rgba2": [
					{ "light": "ffffffff", "dark": "000000" },
					{ "time": 0.4667, "light": "ffffffff", "dark": "dfdfdf" },
					{ "time": 0.8333, "light": "ffffffff", "dark": "000000" }
				]
			},
			"mudminion/Bling 1": {
				"rgba": [
					{ "color": "ffffff00" },
					{ "time": 0.1, "color": "ffffffff", "curve": "stepped" },
					{ "time": 0.2667, "color": "ffffffff" },
					{ "time": 0.3667, "color": "ffffff00", "curve": "stepped" },
					{ "time": 0.4667, "color": "ffffff00" },
					{ "time": 0.5667, "color": "ffffffff", "curve": "stepped" },
					{ "time": 0.7, "color": "ffffffff" },
					{ "time": 0.8, "color": "ffffff00" }
				],
				"attachment": [
					{ "name": "mudminion/Bling 1" }
				]
			},
			"mudminion/Bling 2": {
				"rgba": [
					{ "time": 0.1667, "color": "ffffff00" },
					{ "time": 0.2667, "color": "ffffffff", "curve": "stepped" },
					{ "time": 0.4, "color": "ffffffff" },
					{ "time": 0.4667, "color": "ffffff00", "curve": "stepped" },
					{ "time": 0.5333, "color": "ffffff00" },
					{ "time": 0.6333, "color": "ffffffff", "curve": "stepped" },
					{ "time": 0.7667, "color": "ffffffff" },
					{ "time": 0.8333, "color": "ffffff00" }
				],
				"attachment": [
					{ "time": 0.1667, "name": "mudminion/Bling 1" }
				]
			}
		},
		"bones": {
			"bone2": {
				"scale": [
					{
						"curve": [ 0.074, 0.911, 0.089, 0.892, 0.044, 1, 0.089, 1 ]
					},
					{
						"time": 0.1333,
						"x": 0.852,
						"curve": [ 0.2, 0.791, 0.245, 0.775, 0.2, 1, 0.267, 1 ]
					},
					{
						"time": 0.3333,
						"x": 0.696,
						"curve": [ 0.439, 0.602, 0.556, 1.002, 0.444, 1, 0.556, 1 ]
					},
					{
						"time": 0.6667,
						"x": 1.047,
						"curve": [ 0.722, 1.069, 0.774, 1.038, 0.722, 1, 0.778, 1 ]
					},
					{ "time": 0.8333 }
				]
			},
			"fx1": {
				"rotate": [
					{},
					{ "time": 0.8333, "value": 270 }
				],
				"translate": [
					{},
					{ "time": 0.3667, "y": 513.72 },
					{ "time": 0.4667, "x": -239.73, "y": -488.03 },
					{ "time": 0.8, "x": -239.73, "y": 38.53 }
				]
			},
			"fx2": {
				"rotate": [
					{},
					{ "time": 0.8333, "value": 270 }
				],
				"translate": [
					{ "time": 0.1667 },
					{ "time": 0.4667, "y": 449.5 },
					{ "time": 0.5333, "x": 154.11, "y": -899 },
					{ "time": 0.8333, "x": 154.11, "y": -590.77 }
				]
			}
		},
		"attachments": {
			"default": {
				"body": {
					"mudminion/body": {
						"deform": [
							{
								"offset": 12,
								"vertices": [ -0.05525, 3.03848, 3.03796, -0.08116 ]
							},
							{
								"time": 0.2,
								"offset": 12,
								"vertices": [ -0.05525, 3.03848, 3.03796, -0.08116, 0.66293, -36.46191, -36.45093, 1.12132 ]
							},
							{
								"time": 0.7333,
								"offset": 12,
								"vertices": [ -0.05525, 3.03848, 3.03796, -0.08116, -0.16586, 9.11533, 9.12036, -0.06131 ]
							},
							{
								"time": 0.8333,
								"offset": 12,
								"vertices": [ -0.05525, 3.03848, 3.03796, -0.08116 ]
							}
						]
					}
				}
			}
		}
	},
	"idle normal": {
		"bones": {
			"bone2": {
				"scale": [
					{
						"curve": [ 0.074, 0.911, 0.089, 0.892, 0.044, 1, 0.089, 1 ]
					},
					{
						"time": 0.1333,
						"x": 0.852,
						"curve": [ 0.2, 0.791, 0.245, 0.775, 0.2, 1, 0.267, 1 ]
					},
					{
						"time": 0.3333,
						"x": 0.696,
						"curve": [ 0.439, 0.602, 0.556, 1.002, 0.444, 1, 0.556, 1 ]
					},
					{
						"time": 0.6667,
						"x": 1.047,
						"curve": [ 0.722, 1.069, 0.774, 1.038, 0.722, 1, 0.778, 1 ]
					},
					{ "time": 0.8333 }
				]
			}
		},
		"attachments": {
			"default": {
				"body": {
					"mudminion/body": {
						"deform": [
							{
								"offset": 12,
								"vertices": [ -0.05525, 3.03848, 3.03796, -0.08116 ]
							},
							{
								"time": 0.2,
								"offset": 12,
								"vertices": [ -0.05525, 3.03848, 3.03796, -0.08116, 0.66293, -36.46191, -36.45093, 1.12132 ]
							},
							{
								"time": 0.7333,
								"offset": 12,
								"vertices": [ -0.05525, 3.03848, 3.03796, -0.08116, -0.16586, 9.11533, 9.12036, -0.06131 ]
							},
							{
								"time": 0.8333,
								"offset": 12,
								"vertices": [ -0.05525, 3.03848, 3.03796, -0.08116 ]
							}
						]
					}
				}
			}
		}
	},
	"produce": {
		"slots": {
			"body": {
				"rgba2": [
					{ "time": 0.1333, "light": "ffffffff", "dark": "000000" },
					{ "time": 0.2667, "light": "ffffffff", "dark": "ffffff" },
					{ "time": 0.4667, "light": "ffffffff", "dark": "000000" }
				]
			},
			"head": {
				"rgba2": [
					{ "time": 0.1333, "light": "ffffffff", "dark": "000000" },
					{ "time": 0.2667, "light": "ffffffff", "dark": "ffffff" },
					{ "time": 0.4667, "light": "ffffffff", "dark": "000000" }
				],
				"attachment": [
					{ "time": 0.2667, "name": "mudminion/open h" }
				]
			},
			"open mouth": {
				"rgba2": [
					{ "time": 0.1333, "light": "ffffffff", "dark": "000000" },
					{ "time": 0.2667, "light": "ffffffff", "dark": "ffffff" },
					{ "time": 0.4667, "light": "ffffffff", "dark": "000000" }
				],
				"attachment": [
					{ "time": 0.2667, "name": "mudminion/open mouth" }
				]
			}
		},
		"bones": {
			"bone2": {
				"scale": [
					{ "time": 0.1333 },
					{ "time": 0.2, "x": 1.057 },
					{ "time": 0.3, "x": 0.898 },
					{ "time": 0.4667, "x": 1.158 },
					{ "time": 0.6667 }
				]
			},
			"bone3": {
				"rotate": [
					{},
					{ "time": 0.1667, "value": 9.53 },
					{ "time": 0.3, "value": -3.35 },
					{ "time": 0.6667 }
				],
				"translate": [
					{},
					{ "time": 0.1667, "x": 216.86, "y": 415.25 },
					{ "time": 0.3, "x": 528.76, "y": 244.3 },
					{ "time": 0.6667 }
				]
			},
			"bone4": {
				"rotate": [
					{},
					{ "time": 0.0667, "value": 6.09 },
					{ "time": 0.6667 }
				],
				"translate": [
					{},
					{ "time": 0.0667, "x": -71.18, "y": -47.26 },
					{ "time": 0.1667, "x": -197.19, "y": 27.87 },
					{ "time": 0.6667 }
				],
				"scale": [
					{},
					{ "time": 0.1667, "x": 1.257, "y": 1.257 },
					{ "time": 0.6667 }
				]
			},
			"bone5": {
				"rotate": [
					{},
					{ "time": 0.0667, "value": 6.09 },
					{ "time": 0.1667, "value": 16.42 },
					{ "time": 0.6667 }
				],
				"translate": [
					{},
					{ "time": 0.1667, "x": -47.54, "y": -17.1 },
					{ "time": 0.3333, "x": 23.16, "y": -15.3 },
					{ "time": 0.6667 }
				],
				"scale": [
					{},
					{ "time": 0.1667, "x": 1.965, "y": 0.975 },
					{ "time": 0.3333, "x": 0.889, "y": 0.984 },
					{ "time": 0.6667 }
				]
			}
		}
	},
	"sell market": {
		"slots": {
			"body": {
				"rgba2": [
					{ "light": "ffffffff", "dark": "000000" },
					{ "time": 0.5667, "light": "ffffffff", "dark": "ffffff" }
				]
			},
			"head": {
				"rgba2": [
					{ "light": "ffffffff", "dark": "000000" },
					{ "time": 0.5667, "light": "ffffffff", "dark": "ffffff" }
				]
			}
		},
		"bones": {
			"bone": {
				"translate": [
					{},
					{ "time": 0.1333, "y": -176.25 },
					{ "time": 0.3333, "x": -8.84, "y": 216.39 },
					{ "time": 0.5667, "y": -176.25 },
					{ "time": 0.7333, "y": 1509.88 }
				],
				"scale": [
					{},
					{ "time": 0.1333, "x": 1.227, "y": 0.647 },
					{ "time": 0.3333, "x": 0.595, "y": 1.449 },
					{ "time": 0.5667, "x": 1.309, "y": 0.647 },
					{ "time": 0.7333, "x": 0, "y": 0.647 }
				]
			},
			"bone2": {
				"scale": [
					{ "time": 0.5667 },
					{ "time": 0.6667, "x": 3.233 },
					{ "time": 0.7333, "x": 3.128 }
				]
			},
			"bone3": {
				"scale": [
					{ "time": 0.5667 },
					{ "time": 0.7333, "x": 0, "y": 0 }
				]
			}
		}
	},
	"sell normal": {
		"slots": {
			"body": {
				"rgba2": [
					{ "light": "ffffffff", "dark": "000000" },
					{ "time": 0.1, "light": "ffffffff", "dark": "ffffff" }
				]
			},
			"head": {
				"rgba2": [
					{ "light": "ffffffff", "dark": "000000" },
					{ "time": 0.1, "light": "ffffffff", "dark": "ffffff" }
				]
			}
		},
		"bones": {
			"bone": {
				"translate": [
					{ "time": 0.2 },
					{ "time": 0.3333, "y": 2022 }
				],
				"scale": [
					{},
					{ "time": 0.3333, "x": 0 }
				]
			},
			"bone3": {
				"scale": [
					{},
					{ "time": 0.3333, "x": 0, "y": 0 }
				]
			},
			"bone2": {
				"scale": [
					{},
					{ "time": 0.2, "x": 2.339 },
					{ "time": 0.3333, "x": 0 }
				]
			}
		}
	},
	"summon": {
		"slots": {
			"body": {
				"rgba2": [
					{ "light": "ffffff00", "dark": "ffffff" },
					{ "time": 0.6, "light": "ffffffff", "dark": "ffffff" },
					{ "time": 0.7333, "light": "ffffffff", "dark": "000000" }
				]
			},
			"head": {
				"rgba2": [
					{ "light": "ffffff00", "dark": "ffffff" },
					{ "time": 0.6, "light": "ffffffff", "dark": "ffffff" },
					{ "time": 0.7333, "light": "ffffffff", "dark": "000000" }
				]
			}
		},
		"bones": {
			"bone2": {
				"scale": [
					{ "x": 0.347, "y": 1.916 },
					{ "time": 0.1333, "x": 0.289, "y": 1.793 },
					{ "time": 0.2667, "x": 0.231, "y": 1.674 },
					{ "time": 0.6, "x": 1.044, "y": 1.044 },
					{ "time": 0.8 }
				]
			},
			"bone3": {
				"translate": [
					{},
					{ "time": 0.6, "y": -203.6 },
					{ "time": 0.8 }
				]
			},
			"bone": {
				"translate": [
					{ "y": -156.69 },
					{ "time": 0.6 }
				],
				"scale": [
					{ "x": 1.174, "y": 0.666 },
					{ "time": 0.6, "x": 1.044, "y": 1.044 },
					{ "time": 0.8 }
				]
			}
		}
	}
}
}