{
"skeleton": {
	"hash": "Yei/ZlmwDWQ",
	"spine": "4.1.24",
	"x": -384,
	"y": -1,
	"width": 729,
	"height": 677,
	"images": "./images/",
	"audio": "D:/Kerjaan/Foodcompany/spine/Vessel/Vessel patchwork"
},
"bones": [
	{ "name": "root" },
	{ "name": "bone", "parent": "root", "length": 30.15, "rotation": 1.64, "x": -31.6, "y": 29.28 },
	{ "name": "bone2", "parent": "bone", "length": 315.17, "rotation": 87.42, "x": 31.25, "y": 8.58 }
],
"slots": [
	{ "name": "patchwork v", "bone": "root", "attachment": "vessel patchwork/patchwork v" }
],
"skins": [
	{
		"name": "default",
		"attachments": {
			"patchwork v": {
				"vessel patchwork/patchwork v": {
					"type": "mesh",
					"uvs": [ 1, 1, 0, 1, 0, 0, 1, 0, 0.40793, 0.59153 ],
					"triangles": [ 4, 2, 3, 1, 2, 4, 4, 3, 0, 1, 4, 0 ],
					"vertices": [ 1, 1, 375.58, -41.02, 1, 1, 1, -353.12, -20.2, 1, 2, 1, -333.79, 656.53, 0.07352, 2, 630.88, 393.79, 0.92648, 1, 2, 642.83, -335.11, 1, 2, 1, -47.97, 247.73, 0.10157, 2, 235.35, 89.89, 0.89843 ],
					"hull": 4,
					"edges": [ 0, 2, 2, 4, 4, 6, 0, 6 ],
					"width": 729,
					"height": 677
				}
			}
		}
	}
],
"animations": {
	"idle": {
		"bones": {
			"bone2": {
				"scale": [
					{
						"curve": [ 0.165, 0.949, 0.169, 0.958, 0.153, 1, 0.222, 1 ]
					},
					{
						"time": 0.3333,
						"x": 0.897,
						"curve": [ 0.596, 0.799, 0.734, 0.781, 0.533, 1, 0.733, 1 ]
					},
					{
						"time": 0.9333,
						"x": 0.828,
						"curve": [ 1.241, 0.901, 1.422, 1, 1.178, 1, 1.422, 1 ]
					},
					{ "time": 1.6667 }
				]
			}
		},
		"attachments": {
			"default": {
				"patchwork v": {
					"vessel patchwork/patchwork v": {
						"deform": [
							{
								"offset": 10,
								"vertices": [ -0.0598, -2.09314, -2.09371, -0.03432 ]
							},
							{
								"time": 1,
								"offset": 10,
								"vertices": [ -0.59805, -20.93146, -24.38909, -0.34323 ]
							},
							{
								"time": 1.6667,
								"offset": 10,
								"vertices": [ -0.0598, -2.09314, -2.09371, -0.03432 ]
							}
						]
					}
				}
			}
		}
	}
}
}