{
"skeleton": {
	"hash": "hX1/ee9wBb0",
	"spine": "4.1.24",
	"x": -1038,
	"y": 1,
	"width": 1902,
	"height": 1738,
	"images": "./images/",
	"audio": "D:/Kerjaan/Foodcompany/spine/Wizards/Necro Aide"
},
"bones": [
	{ "name": "root" },
	{ "name": "bone", "parent": "root", "length": 47.47, "rotation": 3.18, "x": -47.55, "y": 31.48 },
	{ "name": "bone2", "parent": "bone", "length": 819.21, "rotation": 85.16, "x": 47.47 },
	{ "name": "fx1", "parent": "root", "x": -655.16, "y": 959.8 },
	{ "name": "fx2", "parent": "root", "x": 595.19, "y": 687.45 }
],
"slots": [
	{ "name": "working", "bone": "root", "dark": "000000", "attachment": "necro aide/working" },
	{ "name": "tired 0 goat", "bone": "root", "dark": "000000" },
	{ "name": "fx1", "bone": "fx1" },
	{ "name": "fx2", "bone": "fx2" }
],
"skins": [
	{
		"name": "default",
		"attachments": {
			"fx1": {
				"necro aide/Bling 1": {
					"type": "mesh",
					"uvs": [ 1, 1, 0, 1, 0, 0, 1, 0 ],
					"triangles": [ 1, 2, 3, 1, 3, 0 ],
					"vertices": [ 126, -140.5, -126, -140.5, -126, 141.5, 126, 141.5 ],
					"hull": 4,
					"edges": [ 0, 2, 2, 4, 4, 6, 0, 6 ],
					"width": 42,
					"height": 47
				}
			},
			"fx2": {
				"necro aide/Bling 1": {
					"type": "mesh",
					"uvs": [ 1, 1, 0, 1, 0, 0, 1, 0 ],
					"triangles": [ 1, 2, 3, 1, 3, 0 ],
					"vertices": [ 147, -164, -147, -164, -147, 165, 147, 165 ],
					"hull": 4,
					"edges": [ 0, 2, 2, 4, 4, 6, 0, 6 ],
					"width": 42,
					"height": 47
				}
			},
			"tired 0 goat": {
				"necro aide/tired 0 goat": {
					"type": "mesh",
					"uvs": [ 1, 1, 0, 1, 0, 0, 1, 0, 0.67759, 0.81139, 0.68288, 0.58429, 0.68553, 0.38215 ],
					"triangles": [ 4, 1, 5, 4, 5, 0, 5, 1, 2, 6, 2, 3, 5, 2, 6, 5, 6, 3, 0, 5, 3, 1, 4, 0 ],
					"vertices": [ 1, 1, 585.51, -71.06, 1, 1, 1, -1028, 18.57, 1, 2, 1, -932.87, 1730.93, 0.14508, 2, 1642.1, 1122.82, 0.85492, 1, 2, 1688.84, -492.51, 1, 1, 2, 282.81, -11.96, 1, 1, 2, 672.38, -9.25, 1, 2, 1, 136.89, 1015.11, 0.00451, 2, 1019.04, -3.5, 0.99549 ],
					"hull": 4,
					"edges": [ 0, 2, 2, 4, 4, 6, 0, 6 ],
					"width": 1616,
					"height": 1715
				}
			},
			"working": {
				"necro aide/working": {
					"type": "mesh",
					"uvs": [ 1, 1, 0, 1, 0, 0, 1, 0, 0.5567, 0.8726, 0.54657, 0.58448, 0.5567, 0.38255, 0.87061, 0.45766, 0.13365, 0.61649 ],
					"triangles": [ 4, 7, 0, 7, 3, 0, 4, 5, 7, 5, 8, 6, 5, 6, 7, 6, 8, 2, 7, 6, 3, 6, 2, 3, 8, 5, 4, 1, 2, 8, 1, 8, 4, 1, 4, 0 ],
					"vertices": [ 1, 1, 908.45, -80.99, 1, 1, 1, -990.62, 24.51, 1, 2, 1, -894.21, 1759.83, 0.11402, 2, 1674.16, 1086.73, 0.88598, 1, 2, 1729.17, -814.47, 1, 1, 2, 188.83, -15.54, 1, 2, 1, 87.42, 687.91, 0.00235, 2, 688.83, 18.2, 0.99765, 2, 1, 126.12, 1037.26, 0.00832, 2, 1040.2, 9.1, 0.99168, 1, 2, 926.98, -591.49, 1, 2, 1, -699.84, 675.92, 0.50177, 2, 610.49, 801.64, 0.49823 ],
					"hull": 4,
					"edges": [ 0, 2, 2, 4, 4, 6, 0, 6 ],
					"width": 1902,
					"height": 1738
				}
			}
		}
	}
],
"animations": {
	"action": {
		"slots": {
			"fx1": {
				"rgba": [
					{ "time": 0.3667, "color": "ffffff00" },
					{ "time": 0.4667, "color": "ffffffff", "curve": "stepped" },
					{ "time": 0.5333, "color": "ffffffff" },
					{ "time": 0.6, "color": "ffffff00", "curve": "stepped" },
					{ "time": 0.6333, "color": "ffffff00" },
					{ "time": 0.7, "color": "ffffffff", "curve": "stepped" },
					{ "time": 0.8, "color": "ffffffff" },
					{ "time": 0.8667, "color": "ffffff00" }
				],
				"attachment": [
					{ "time": 0.3667, "name": "necro aide/Bling 1" }
				]
			},
			"fx2": {
				"rgba": [
					{ "time": 0.2, "color": "ffffff00" },
					{ "time": 0.2667, "color": "ffffffff", "curve": "stepped" },
					{ "time": 0.3667, "color": "ffffffff" },
					{ "time": 0.4333, "color": "ffffff00", "curve": "stepped" },
					{ "time": 0.4667, "color": "ffffff00" },
					{ "time": 0.5333, "color": "ffffffff", "curve": "stepped" },
					{ "time": 0.6333, "color": "ffffffff" },
					{ "time": 0.7, "color": "ffffff00", "curve": "stepped" },
					{ "time": 0.7333, "color": "ffffff00" },
					{ "time": 0.8, "color": "ffffffff", "curve": "stepped" },
					{ "time": 0.9, "color": "ffffffff" },
					{ "time": 0.9667, "color": "ffffff00" }
				],
				"attachment": [
					{ "time": 0.2, "name": "necro aide/Bling 1" }
				]
			},
			"tired 0 goat": {
				"rgba2": [
					{ "time": 0.8, "light": "ffffffff", "dark": "ffffff" },
					{ "time": 1.0333, "light": "ffffffff", "dark": "000000" }
				],
				"attachment": [
					{ "time": 0.8667, "name": "necro aide/tired 0 goat" }
				]
			},
			"working": {
				"rgba2": [
					{ "light": "ffffffff", "dark": "000000" },
					{ "time": 0.3333, "light": "ffffffff", "dark": "e3e3e3" },
					{ "time": 0.5667, "light": "ffffffff", "dark": "000000" },
					{ "time": 0.8, "light": "ffffffff", "dark": "ffffff" },
					{ "time": 1.0333, "light": "ffffffff", "dark": "000000" }
				],
				"attachment": [
					{ "time": 0.8667 }
				]
			}
		},
		"bones": {
			"bone": {
				"translate": [
					{ "time": 0.2667 },
					{ "time": 0.3667, "y": 282, "curve": "stepped" },
					{ "time": 0.8667, "y": 282 },
					{ "time": 1.0333 }
				]
			},
			"bone2": {
				"scale": [
					{
						"curve": [ 0.03, 0.948, -0.007, 0.928, 0.024, 1, 0.01, 1 ]
					},
					{
						"time": 0.0333,
						"x": 0.906,
						"curve": [ 0.082, 0.88, 0.167, 0.883, 0.069, 1, 0.164, 1 ]
					},
					{
						"time": 0.2,
						"x": 0.898,
						"curve": [ 0.255, 0.923, 0.308, 1.031, 0.259, 1, 0.307, 0.991 ]
					},
					{
						"time": 0.3667,
						"x": 1.037,
						"y": 0.991,
						"curve": [ 0.398, 1.04, 0.437, 1.034, 0.396, 0.991, 0.437, 1 ]
					},
					{ "time": 0.4667, "curve": "stepped" },
					{
						"time": 1.0333,
						"curve": [ 1.074, 0.948, 1.079, 0.928, 1.065, 1, 1.101, 1 ]
					},
					{
						"time": 1.1333,
						"x": 0.906,
						"curve": [ 1.199, 0.88, 1.256, 0.883, 1.182, 1, 1.252, 1 ]
					},
					{
						"time": 1.3,
						"x": 0.898,
						"curve": [ 1.374, 0.923, 1.454, 1.031, 1.38, 1, 1.453, 0.991 ]
					},
					{
						"time": 1.5333,
						"x": 1.037,
						"y": 0.991,
						"curve": [ 1.576, 1.04, 1.593, 1.034, 1.574, 0.991, 1.593, 1 ]
					},
					{ "time": 1.6333 }
				]
			},
			"fx1": {
				"translate": [
					{ "time": 0.3667 },
					{ "time": 0.6, "x": -600, "y": -528 },
					{ "time": 0.6333, "x": 870, "y": 534 },
					{ "time": 0.8667, "x": 1368, "y": 996 }
				],
				"scale": [
					{ "time": 0.3667 },
					{ "time": 0.6, "x": 1.5, "y": 1.5 },
					{ "time": 0.6333 },
					{ "time": 0.8667, "x": 1.5, "y": 1.5 }
				]
			},
			"fx2": {
				"translate": [
					{ "time": 0.2 },
					{ "time": 0.4333, "x": 330, "y": -510 },
					{ "time": 0.4667, "x": -900, "y": 396 },
					{ "time": 0.7, "x": -1242, "y": 804 },
					{ "time": 0.7333, "x": -846, "y": 90 },
					{ "time": 0.9667, "x": -1308, "y": 66 }
				],
				"scale": [
					{ "time": 0.2 },
					{ "time": 0.4333, "x": 1.5, "y": 1.5 },
					{ "time": 0.4667 },
					{ "time": 0.7, "x": 1.5, "y": 1.5 },
					{ "time": 0.7333 },
					{ "time": 0.9667, "x": 1.5, "y": 1.5 }
				]
			}
		}
	},
	"idle off": {
		"slots": {
			"tired 0 goat": {
				"attachment": [
					{ "name": "necro aide/tired 0 goat" }
				]
			},
			"working": {
				"attachment": [
					{}
				]
			}
		},
		"bones": {
			"bone2": {
				"scale": [
					{
						"curve": [ 0.056, 0.948, 0.058, 0.928, 0.044, 1, 0.089, 1 ]
					},
					{
						"time": 0.1333,
						"x": 0.906,
						"curve": [ 0.224, 0.88, 0.272, 0.883, 0.2, 1, 0.267, 1 ]
					},
					{
						"time": 0.3333,
						"x": 0.898,
						"curve": [ 0.435, 0.923, 0.557, 1.031, 0.444, 1, 0.556, 0.991 ]
					},
					{
						"time": 0.6667,
						"x": 1.037,
						"y": 0.991,
						"curve": [ 0.726, 1.04, 0.778, 1.034, 0.722, 0.991, 0.778, 1 ]
					},
					{ "time": 0.8333 }
				]
			}
		}
	},
	"idle on": {
		"slots": {
			"fx1": {
				"rgba": [
					{ "color": "ffffff00" },
					{ "time": 0.1333, "color": "ffffffff", "curve": "stepped" },
					{ "time": 0.2667, "color": "ffffffff" },
					{ "time": 0.4, "color": "ffffff00", "curve": "stepped" },
					{ "time": 0.4333, "color": "ffffff00" },
					{ "time": 0.6, "color": "ffffffff", "curve": "stepped" },
					{ "time": 0.7333, "color": "ffffffff" },
					{ "time": 0.8333, "color": "ffffff00" }
				],
				"attachment": [
					{ "name": "necro aide/Bling 1" }
				]
			},
			"fx2": {
				"rgba": [
					{ "color": "ffffff00", "curve": "stepped" },
					{ "time": 0.1333, "color": "ffffff00" },
					{ "time": 0.3, "color": "ffffffff", "curve": "stepped" },
					{ "time": 0.4333, "color": "ffffffff" },
					{ "time": 0.5333, "color": "ffffff00" }
				],
				"attachment": [
					{ "name": "necro aide/Bling 1" }
				]
			},
			"working": {
				"rgba2": [
					{ "light": "ffffffff", "dark": "000000" },
					{ "time": 0.3667, "light": "ffffffff", "dark": "c5c5c5" },
					{ "time": 0.8333, "light": "ffffffff", "dark": "000000" }
				]
			}
		},
		"bones": {
			"bone2": {
				"scale": [
					{
						"curve": [ 0.056, 0.948, 0.058, 0.928, 0.044, 1, 0.089, 1 ]
					},
					{
						"time": 0.1333,
						"x": 0.906,
						"curve": [ 0.224, 0.88, 0.272, 0.883, 0.2, 1, 0.267, 1 ]
					},
					{
						"time": 0.3333,
						"x": 0.898,
						"curve": [ 0.435, 0.923, 0.557, 1.031, 0.444, 1, 0.556, 0.991 ]
					},
					{
						"time": 0.6667,
						"x": 1.037,
						"y": 0.991,
						"curve": [ 0.726, 1.04, 0.778, 1.034, 0.722, 0.991, 0.778, 1 ]
					},
					{ "time": 0.8333 }
				]
			},
			"fx1": {
				"rotate": [
					{},
					{ "time": 0.8333, "value": 270 }
				],
				"translate": [
					{ "x": 119.02, "y": 357.06 },
					{ "time": 0.4, "x": 119.02, "y": 886.51 },
					{ "time": 0.4333, "x": -141.08, "y": -206.58 },
					{ "time": 0.8333, "x": -141.08, "y": 267.04 }
				]
			},
			"fx2": {
				"rotate": [
					{},
					{ "time": 0.8333, "value": 270 }
				],
				"translate": [
					{ "time": 0.1333, "x": 174, "y": 288.57 },
					{ "time": 0.5333, "x": 174, "y": 804.57 }
				]
			}
		}
	},
	"summon": {
		"slots": {
			"working": {
				"rgba2": [
					{ "light": "ffffff00", "dark": "ffffff" },
					{ "time": 0.6, "light": "ffffffff", "dark": "ffffff" },
					{ "time": 0.7333, "light": "ffffffff", "dark": "000000" }
				]
			}
		},
		"bones": {
			"bone": {
				"translate": [
					{ "y": -65.67 },
					{ "time": 0.6, "y": 119.02 },
					{ "time": 0.7333 }
				],
				"scale": [
					{ "y": 0.03 },
					{ "time": 0.6, "x": 0.789, "y": 1.089 },
					{ "time": 0.7333 }
				]
			},
			"bone2": {
				"rotate": [
					{ "value": 4.59 },
					{ "time": 0.6 }
				]
			}
		}
	}
}
}