{
"skeleton": {
	"hash": "eSpMitu6Xf0",
	"spine": "4.1.24",
	"x": -363,
	"y": -64,
	"width": 569,
	"height": 698,
	"images": "./images/",
	"audio": "E:/Proj/Necromancer/02_Character/0 NEW/Vessels LV1/vessel shadow owl"
},
"bones": [
	{ "name": "root" },
	{ "name": "fx", "parent": "root", "x": -184.38, "y": 472.7 },
	{ "name": "bone", "parent": "root", "length": 47.98, "rotation": 180, "x": -18.55, "y": -1.85 },
	{ "name": "bone2", "parent": "bone", "length": 570.18, "rotation": -90.14, "x": -25.4, "y": -23.99 }
],
"slots": [
	{ "name": "owl v", "bone": "root", "dark": "000000", "attachment": "vessel owl/owl v" },
	{ "name": "fx", "bone": "root" }
],
"skins": [
	{
		"name": "default",
		"attachments": {
			"fx": {
				"vessel owl/Bling 1": {
					"type": "mesh",
					"uvs": [ 1, 1, 0, 1, 0, 0, 1, 0 ],
					"triangles": [ 1, 2, 3, 1, 3, 0 ],
					"vertices": [ 1, 1, 40.08, -44.59, 1, 1, 1, -43.92, -44.59, 1, 1, 1, -43.92, 49.41, 1, 1, 1, 40.08, 49.41, 1 ],
					"hull": 4,
					"edges": [ 0, 2, 2, 4, 4, 6, 0, 6 ],
					"width": 42,
					"height": 47
				}
			},
			"owl v": {
				"vessel owl/owl v": {
					"type": "mesh",
					"uvs": [ 1, 1, 0, 1, 0, 0, 1, 0 ],
					"triangles": [ 1, 2, 3, 1, 3, 0 ],
					"vertices": [ 2, 3, -85.65, -199.36, 0.46, 2, -224.55, 62.15, 0.54, 2, 3, -87.05, 369.64, 0.48571, 2, 344.45, 62.15, 0.51429, 1, 3, 610.94, 371.37, 1, 1, 3, 612.35, -197.63, 1 ],
					"hull": 4,
					"edges": [ 0, 2, 2, 4, 4, 6, 0, 6 ],
					"width": 569,
					"height": 698
				}
			}
		}
	}
],
"animations": {
	"idle": {
		"bones": {
			"bone2": {
				"scale": [
					{
						"x": 1.17,
						"y": 1.17,
						"curve": [ 0.17, 1.152, 0.22, 1.09, 0.111, 1.17, 0.222, 1.17 ]
					},
					{
						"time": 0.3333,
						"x": 1.07,
						"y": 1.17,
						"curve": [ 0.533, 1.035, 0.733, 0.986, 0.533, 1.17, 0.733, 1.17 ]
					},
					{
						"time": 0.9333,
						"y": 1.17,
						"curve": [ 1.193, 1.018, 1.422, 1.196, 1.178, 1.17, 1.422, 1.17 ]
					},
					{ "time": 1.6667, "x": 1.17, "y": 1.17 }
				]
			}
		}
	},
	"upgrade": {
		"slots": {
			"fx": {
				"rgba": [
					{ "color": "ffffff00" },
					{ "time": 0.1333, "color": "fffffffe" },
					{ "time": 0.2667, "color": "ffffff00", "curve": "stepped" },
					{ "time": 0.3, "color": "ffffff00" },
					{ "time": 0.4667, "color": "fffffffe" },
					{ "time": 0.6, "color": "ffffff00", "curve": "stepped" },
					{ "time": 0.6333, "color": "ffffff00" },
					{ "time": 0.8333, "color": "fffffffe" },
					{ "time": 0.9333, "color": "ffffff00", "curve": "stepped" },
					{ "time": 0.9667, "color": "ffffff00" },
					{ "time": 1.1333, "color": "fffffffe" },
					{ "time": 1.3333, "color": "ffffff00" }
				],
				"attachment": [
					{ "name": "vessel owl/Bling 1" }
				]
			},
			"owl v": {
				"rgba2": [
					{ "light": "ffffffff", "dark": "000000" },
					{ "time": 0.6667, "light": "ffffffff", "dark": "ffffff" }
				]
			}
		},
		"bones": {
			"fx": {
				"translate": [
					{ "y": -176.16 },
					{ "time": 0.2667, "y": -36.7 },
					{ "time": 0.3, "x": 337.64, "y": -230.47 },
					{ "time": 0.6, "x": 337.64, "y": -2.94 },
					{ "time": 0.6333, "x": 231.94, "y": -322.96 },
					{ "time": 0.9333, "x": 231.94, "y": -55.78 },
					{ "time": 0.9667, "x": 45.51, "y": -262.77 },
					{ "time": 1.3333, "x": 45.51, "y": 48.44 }
				]
			},
			"bone2": {
				"scale": [
					{ "x": 1.17, "y": 1.17 },
					{ "time": 0.2, "x": 1.3, "y": 1.17 },
					{ "time": 0.4333, "y": 1.17 },
					{ "time": 0.8667, "x": 1.4, "y": 1.17 }
				]
			}
		}
	}
}
}