%YAML 1.1
%TAG !u! tag:unity3d.com,2011:
--- !u!114 &11400000
MonoBehaviour:
  m_ObjectHideFlags: 0
  m_CorrespondingSourceObject: {fileID: 0}
  m_PrefabInstance: {fileID: 0}
  m_PrefabAsset: {fileID: 0}
  m_GameObject: {fileID: 0}
  m_Enabled: 1
  m_EditorHideFlags: 0
  m_Script: {fileID: 11500000, guid: a6b194f808b1af6499c93410e504af42, type: 3}
  m_Name: Minor_PatchworkMonster_Vessel1_Atlas
  m_EditorClassIdentifier: 
  textureLoadingMode: 0
  onDemandTextureLoader: {fileID: 0}
  atlasFile: {fileID: 4900000, guid: 6f9eb6bee1935d442ab0e6ecbd0b1652, type: 3}
  materials:
  - {fileID: 2100000, guid: 5677e1c62fe3fcd43b9b2d30b0043319, type: 2}
