{
"skeleton": {
	"hash": "Nb+rLoZvmt8",
	"spine": "4.1.24",
	"x": -307.72,
	"y": -17,
	"width": 705.72,
	"height": 601,
	"images": "./images/",
	"audio": "D:/Kerjaan/Foodcompany/spine/Vessel/Vessel Basilisk"
},
"bones": [
	{ "name": "root" },
	{ "name": "bone", "parent": "root", "length": 35.89, "rotation": -2.39, "x": -35.52, "y": 42.03 },
	{ "name": "bone2", "parent": "bone", "length": 435.73, "rotation": 90.52, "x": 35.14, "y": -0.03 },
	{ "name": "fx", "parent": "root", "x": -253.01, "y": 312.56 }
],
"slots": [
	{ "name": "basilisk v", "bone": "root", "dark": "000000", "attachment": "vessel basilisk/basilisk v" },
	{ "name": "fx", "bone": "root", "color": "ffffff00", "attachment": "vessel basilisk/Bling 1" }
],
"skins": [
	{
		"name": "default",
		"attachments": {
			"basilisk v": {
				"vessel basilisk/basilisk v": {
					"type": "mesh",
					"uvs": [ 1, 1, 0, 1, 0, 0, 1, 0, 0.47104, 0.46303 ],
					"triangles": [ 4, 3, 0, 1, 2, 4, 4, 2, 3, 1, 4, 0 ],
					"vertices": [ 1, 1, 435.61, -40.93, 1, 1, 1, -231.82, -68.74, 1, 2, 1, -256.83, 531.74, 0.01373, 2, 534.4, 287.14, 0.98627, 1, 2, 556.15, -380.5, 1, 1, 2, 266.51, -36.41, 1 ],
					"hull": 4,
					"edges": [ 0, 2, 2, 4, 4, 6, 0, 6 ],
					"width": 668,
					"height": 601
				}
			},
			"fx": {
				"vessel basilisk/Bling 1": {
					"type": "mesh",
					"uvs": [ 1, 1, 0, 1, 0, 0, 1, 0 ],
					"triangles": [ 1, 2, 3, 1, 3, 0 ],
					"vertices": [ 1, 3, 50.29, -57.33, 1, 1, 3, -54.71, -57.33, 1, 1, 3, -54.71, 60.17, 1, 1, 3, 50.29, 60.17, 1 ],
					"hull": 4,
					"edges": [ 0, 2, 2, 4, 4, 6, 0, 6 ],
					"width": 42,
					"height": 47
				}
			}
		}
	}
],
"animations": {
	"idle": {
		"bones": {
			"bone": {
				"rotate": [
					{ "value": -0.29 }
				]
			},
			"bone2": {
				"scale": [
					{
						"curve": [ 0.111, 1, 0.222, 0.965, 0.111, 1, 0.222, 1 ]
					},
					{
						"time": 0.3333,
						"x": 0.936,
						"curve": [ 0.533, 0.884, 0.728, 0.891, 0.533, 1, 0.733, 1 ]
					},
					{
						"time": 0.9333,
						"x": 0.914,
						"curve": [ 1.178, 0.941, 1.422, 1, 1.178, 1, 1.422, 1 ]
					},
					{ "time": 1.6667 }
				]
			}
		},
		"attachments": {
			"default": {
				"basilisk v": {
					"vessel basilisk/basilisk v": {
						"deform": [
							{
								"offset": 10,
								"vertices": [ 2.4603, 0.09259 ]
							},
							{
								"time": 1,
								"offset": 10,
								"vertices": [ -11.02491, -0.37034 ]
							},
							{
								"time": 1.6667,
								"offset": 10,
								"vertices": [ 2.4603, 0.09259 ]
							}
						]
					}
				}
			}
		}
	},
	"summon": {
		"slots": {
			"basilisk v": {
				"rgba2": [
					{ "light": "ffffff00", "dark": "ffffff" },
					{ "time": 0.6, "light": "ffffffff", "dark": "ffffff" },
					{ "time": 0.7333, "light": "ffffffff", "dark": "000000" }
				]
			}
		},
		"bones": {
			"bone2": {
				"scale": [
					{ "x": 0.291 },
					{ "time": 0.4667, "x": 1.337, "y": 0.778 },
					{ "time": 0.7, "x": 0.796, "y": 1.185 },
					{ "time": 0.8667, "x": 1.16, "y": 0.864 },
					{ "time": 1 }
				]
			}
		}
	},
	"upgrade": {
		"slots": {
			"basilisk v": {
				"rgba2": [
					{ "light": "ffffffff", "dark": "000000" },
					{ "time": 0.6667, "light": "ffffffff", "dark": "ffffff" }
				]
			},
			"fx": {
				"rgba": [
					{ "color": "ffffff00" },
					{ "time": 0.1333, "color": "fffffffe" },
					{ "time": 0.2667, "color": "ffffff00", "curve": "stepped" },
					{ "time": 0.3, "color": "ffffff00" },
					{ "time": 0.4667, "color": "fffffffe" },
					{ "time": 0.6, "color": "ffffff00", "curve": "stepped" },
					{ "time": 0.6333, "color": "ffffff00" },
					{ "time": 0.8333, "color": "fffffffe" },
					{ "time": 0.9333, "color": "ffffff00", "curve": "stepped" },
					{ "time": 0.9667, "color": "ffffff00" },
					{ "time": 1.1333, "color": "fffffffe" },
					{ "time": 1.3333, "color": "ffffff00" }
				]
			}
		},
		"bones": {
			"fx": {
				"translate": [
					{ "y": -176.16 },
					{ "time": 0.2667, "y": -36.7 },
					{ "time": 0.3, "x": 337.64, "y": -230.47 },
					{ "time": 0.6, "x": 337.64, "y": -2.94 },
					{ "time": 0.6333, "x": 231.94, "y": -322.96 },
					{ "time": 0.9333, "x": 231.94, "y": -55.78 },
					{ "time": 0.9667, "x": 45.51, "y": -262.77 },
					{ "time": 1.3333, "x": 45.51, "y": 48.44 }
				]
			},
			"bone2": {
				"scale": [
					{},
					{ "time": 0.2, "x": 1.084 },
					{ "time": 0.4333, "x": 0.974 },
					{ "time": 0.8667, "x": 1.251 }
				]
			}
		}
	}
}
}